../Core/Src/ds3231_i2c.c:9:16:BCDToDec	16	static
../Core/Src/ds3231_i2c.c:14:16:DecToBCD	16	static
../Core/Src/ds3231_i2c.c:19:6:DS3231_Init	16	static
../Core/Src/ds3231_i2c.c:24:6:DS3231_DeInit	4	static
../Core/Src/ds3231_i2c.c:29:19:DS3231_GetTime	40	static
../Core/Src/ds3231_i2c.c:52:19:DS3231_SetTime	40	static
../Core/Src/ds3231_i2c.c:72:19:DS3231_SetAlarm	40	static
../Core/Src/ds3231_i2c.c:124:19:DS3231_GetAlarm	40	static
../Core/Src/ds3231_i2c.c:168:6:DS3231_EnableAlarm	32	static
../Core/Src/ds3231_i2c.c:182:6:DS3231_DisableAlarm	32	static
../Core/Src/ds3231_i2c.c:196:6:DS3231_ClearAlarmFlag	32	static
../Core/Src/ds3231_i2c.c:209:9:DS3231_GetAlarmFlag	32	static
