Added Component: Designator=JDC(DC-IN)
Add component (AddParameter): Name = "Value"; Value = "Jac DC"; VariantName = "[No Variations]"
Added Component: Designator=JDC(DC-IN)
Add component (AddParameter): Name = "Value"; Value = "Jac DC"; VariantName = "[No Variations]"
Added Pin To Net: NetName=5V Pin=JDC-1
Added Pin To Net: NetName=GND Pin=JDC-2
Added Pin To Net: NetName=GND Pin=JDC-3
Added Member To Class: ClassName=Sheet1 Member=Component C5 0.1uF,0603
Added Member To Class: ClassName=Sheet1 Member=Component C7 20p,0603
Added Member To Class: ClassName=Sheet1 Member=Component C8 20p,0603
Added Member To Class: ClassName=Sheet1 Member=Component C10 104,0603
Added Member To Class: ClassName=Sheet1 Member=Component C12 104,0603
Added Member To Class: ClassName=Sheet1 Member=Component C14 104,0603
Added Member To Class: ClassName=Sheet1 Member=Component JDC Jac DC
Added Member To Class: ClassName=Sheet1 Member=Component JDC Jac DC
Added Member To Class: ClassName=Sheet1 Member=Component R2 10k
Added Member To Class: ClassName=Sheet1 Member=Component R4 510
Added Member To Class: ClassName=Sheet1 Member=Component R6 20
Added Member To Class: ClassName=Sheet1 Member=Component R8 100k
Added Room: Name=Sheet1
